<?xml version="1.0" encoding="UTF-8" standalone="no"?>
<!-- Created with Inkscape (http://www.inkscape.org/) -->

<svg
   xmlns:dc="http://purl.org/dc/elements/1.1/"
   xmlns:cc="http://creativecommons.org/ns#"
   xmlns:rdf="http://www.w3.org/1999/02/22-rdf-syntax-ns#"
   xmlns:svg="http://www.w3.org/2000/svg"
   xmlns="http://www.w3.org/2000/svg"
   xmlns:xlink="http://www.w3.org/1999/xlink"
   xmlns:sodipodi="http://sodipodi.sourceforge.net/DTD/sodipodi-0.dtd"
   xmlns:inkscape="http://www.inkscape.org/namespaces/inkscape"
   width="12.013542in"
   height="5.8778081in"
   viewBox="0 0 305.14399 149.29633"
   version="1.1"
   id="svg8"
   inkscape:version="0.92.3 (2405546, 2018-03-11)"
   sodipodi:docname="julia-environment.svg">
  <defs
     id="defs2" />
  <sodipodi:namedview
     id="base"
     pagecolor="#ffffff"
     bordercolor="#666666"
     borderopacity="1.0"
     inkscape:pageopacity="0.0"
     inkscape:pageshadow="2"
     inkscape:zoom="0.7"
     inkscape:cx="246.82689"
     inkscape:cy="378.83651"
     inkscape:document-units="in"
     inkscape:current-layer="layer1"
     showgrid="false"
     units="in"
     fit-margin-top="0"
     fit-margin-left="0"
     fit-margin-right="0"
     fit-margin-bottom="0"
     inkscape:window-width="1920"
     inkscape:window-height="1021"
     inkscape:window-x="0"
     inkscape:window-y="27"
     inkscape:window-maximized="1" />
  <metadata
     id="metadata5">
    <rdf:RDF>
      <cc:Work
         rdf:about="">
        <dc:format>image/svg+xml</dc:format>
        <dc:type
           rdf:resource="http://purl.org/dc/dcmitype/StillImage" />
        <dc:title></dc:title>
      </cc:Work>
    </rdf:RDF>
  </metadata>
  <g
     inkscape:label="Layer 1"
     inkscape:groupmode="layer"
     id="layer1"
     transform="translate(-21.752527,-139.97406)">
    <image
       sodipodi:absref="/home/tomasi/Documents/conferences/2018-ADASS-College-Park/repository/julia-repl.png"
       xlink:href="julia-repl.png"
       width="121.92"
       height="77.48304"
       preserveAspectRatio="none"
       id="image1188"
       x="21.752527"
       y="139.97406" />
    <image
       sodipodi:absref="/home/tomasi/Documents/conferences/2018-ADASS-College-Park/repository/jupyter.png"
       xlink:href="jupyter.png"
       width="132.8813"
       height="92.356415"
       preserveAspectRatio="none"
       id="image1199"
       x="98.103722"
       y="166.05441" />
    <image
       sodipodi:absref="/home/tomasi/Documents/conferences/2018-ADASS-College-Park/repository/julia-emacs.png"
       xlink:href="julia-emacs.png"
       width="121.92"
       height="117.81828"
       preserveAspectRatio="none"
       id="image1177"
       x="204.9765"
       y="171.4521" />
  </g>
</svg>
